I love this piece of techonology!	0
Actualy, the most annoying thing I have ever used!	-1
This is a simple test file	0
This show is superb! While I may be bias as the book series is my favourite book series of all, I still think the show itself is fantastic!	-1
I just had to make this review. There are a lot of ridiculously harsh reviews of this show that I find absurd.	0
Probably, this is one of those products that you only understand after you buy! Unfortunately, I had a terrible experience!	-1
Excellent adaptation of an amazing book, with some notable flaws that I can not let pass up.	0
Although it is a proven currency, your market is increasingly like a bubble!	-1
Perhaps it would have been better to scale a lesser known and spent more cast in the script!	-1
The best play ever produced. Certainly worthy of note and re-reading for the next few centuries.	0
